%YAML 1.1
%TAG !u! tag:unity3d.com,2011:
--- !u!74 &7400000
AnimationClip:
  m_ObjectHideFlags: 0
  m_CorrespondingSourceObject: {fileID: 0}
  m_PrefabInstance: {fileID: 0}
  m_PrefabAsset: {fileID: 0}
  m_Name: HeadExplosion
  serializedVersion: 6
  m_Legacy: 0
  m_Compressed: 0
  m_UseHighQualityCurve: 1
  m_RotationCurves: []
  m_CompressedRotationCurves: []
  m_EulerCurves: []
  m_PositionCurves: []
  m_ScaleCurves: []
  m_FloatCurves: []
  m_PPtrCurves:
  - curve:
    - time: 0
      value: {fileID: 21300000, guid: 7bedf12b5522da545aebfeef990467d2, type: 3}
    - time: 0.083333336
      value: {fileID: 21300000, guid: ad7378306e324a744ad3abcc223110cb, type: 3}
    - time: 0.16666667
      value: {fileID: 21300000, guid: 1345ce40c90dfaf4cac3e7a2b66376f4, type: 3}
    - time: 0.25
      value: {fileID: 21300000, guid: 8d7231ad8dae89f4d80240538e289ad8, type: 3}
    - time: 0.33333334
      value: {fileID: 21300000, guid: 619093e8cb0c92e419ff9fa6d6e8187a, type: 3}
    - time: 0.41666666
      value: {fileID: 21300000, guid: c6acb6bea78e0c543a58d9695d191e15, type: 3}
    - time: 0.5
      value: {fileID: 21300000, guid: 9c0d6ce75afc9ab4da4cdffd32d82103, type: 3}
    - time: 0.5833333
      value: {fileID: 21300000, guid: e9ad0273b6ee1e74781f1a5536c8c8ab, type: 3}
    - time: 0.6666667
      value: {fileID: 21300000, guid: bf88fd97eabee204386e953739edc55c, type: 3}
    - time: 0.75
      value: {fileID: 21300000, guid: e4b8b159a80690a48bbc90bdaecd8f06, type: 3}
    - time: 0.8333333
      value: {fileID: 21300000, guid: d9495ccc253a90144ad20f833c0ccaa9, type: 3}
    - time: 0.9166667
      value: {fileID: 21300000, guid: acc22582e7cb4764c97f35bd615e566e, type: 3}
    - time: 1
      value: {fileID: 21300000, guid: 07dda4462439a5f439e33000f73f1d78, type: 3}
    attribute: m_Sprite
    path: 
    classID: 212
    script: {fileID: 0}
  m_SampleRate: 12
  m_WrapMode: 0
  m_Bounds:
    m_Center: {x: 0, y: 0, z: 0}
    m_Extent: {x: 0, y: 0, z: 0}
  m_ClipBindingConstant:
    genericBindings:
    - serializedVersion: 2
      path: 0
      attribute: 0
      script: {fileID: 0}
      typeID: 212
      customType: 23
      isPPtrCurve: 1
    pptrCurveMapping:
    - {fileID: 21300000, guid: 7bedf12b5522da545aebfeef990467d2, type: 3}
    - {fileID: 21300000, guid: ad7378306e324a744ad3abcc223110cb, type: 3}
    - {fileID: 21300000, guid: 1345ce40c90dfaf4cac3e7a2b66376f4, type: 3}
    - {fileID: 21300000, guid: 8d7231ad8dae89f4d80240538e289ad8, type: 3}
    - {fileID: 21300000, guid: 619093e8cb0c92e419ff9fa6d6e8187a, type: 3}
    - {fileID: 21300000, guid: c6acb6bea78e0c543a58d9695d191e15, type: 3}
    - {fileID: 21300000, guid: 9c0d6ce75afc9ab4da4cdffd32d82103, type: 3}
    - {fileID: 21300000, guid: e9ad0273b6ee1e74781f1a5536c8c8ab, type: 3}
    - {fileID: 21300000, guid: bf88fd97eabee204386e953739edc55c, type: 3}
    - {fileID: 21300000, guid: e4b8b159a80690a48bbc90bdaecd8f06, type: 3}
    - {fileID: 21300000, guid: d9495ccc253a90144ad20f833c0ccaa9, type: 3}
    - {fileID: 21300000, guid: acc22582e7cb4764c97f35bd615e566e, type: 3}
    - {fileID: 21300000, guid: 07dda4462439a5f439e33000f73f1d78, type: 3}
  m_AnimationClipSettings:
    serializedVersion: 2
    m_AdditiveReferencePoseClip: {fileID: 0}
    m_AdditiveReferencePoseTime: 0
    m_StartTime: 0
    m_StopTime: 1.0833334
    m_OrientationOffsetY: 0
    m_Level: 0
    m_CycleOffset: 0
    m_HasAdditiveReferencePose: 0
    m_LoopTime: 0
    m_LoopBlend: 0
    m_LoopBlendOrientation: 0
    m_LoopBlendPositionY: 0
    m_LoopBlendPositionXZ: 0
    m_KeepOriginalOrientation: 0
    m_KeepOriginalPositionY: 1
    m_KeepOriginalPositionXZ: 0
    m_HeightFromFeet: 0
    m_Mirror: 0
  m_EditorCurves: []
  m_EulerEditorCurves: []
  m_HasGenericRootTransform: 0
  m_HasMotionFloatCurves: 0
  m_Events: []
